{
  "name": "",
  "version": "0.0.0",
  "description": "",
  "sampleUrl": false,
  "apidoc": "0.2.0",
  "generator": {
    "name": "apidoc",
    "time": "2016-10-26T05:21:15.576Z",
    "url": "http://apidocjs.com",
    "version": "0.16.1"
  }
}
